{
    "/js/app.js": "/js/app.js",
    "/css/app.css": "/css/app.css",
    "/images/8.jpg": "/images/8.jpg",
    "/images/bg-01.jpg": "/images/bg-01.jpg",
    "/images/bg-0121.jpg": "/images/bg-0121.jpg",
    "/images/bg-masthead.jpg": "/images/bg-masthead.jpg",
    "/images/bg-signup.jpg": "/images/bg-signup.jpg",
    "/images/demo-image-01.jpg": "/images/demo-image-01.jpg",
    "/images/demo-image-012.jpg": "/images/demo-image-012.jpg",
    "/images/demo-image-02.jpg": "/images/demo-image-02.jpg",
    "/images/demo-image-022.jpg": "/images/demo-image-022.jpg",
    "/images/empresario.png": "/images/empresario.png",
    "/images/favicon.ico": "/images/favicon.ico",
    "/images/ipad copy.png": "/images/ipad copy.png",
    "/images/ipad.gif": "/images/ipad.gif",
    "/images/ipad.png": "/images/ipad.png",
    "/fonts/Montserrat-Bold.ttf": "/fonts/Montserrat-Bold.ttf",
    "/fonts/Poppins-Bold.ttf": "/fonts/Poppins-Bold.ttf",
    "/fonts/Poppins-Light.ttf": "/fonts/Poppins-Light.ttf",
    "/fonts/Poppins-Medium.ttf": "/fonts/Poppins-Medium.ttf",
    "/fonts/Poppins-Regular.ttf": "/fonts/Poppins-Regular.ttf",
    "/fonts/Poppins-SemiBold.ttf": "/fonts/Poppins-SemiBold.ttf",
    "/fonts/SIL Open Font License.txt": "/fonts/SIL Open Font License.txt",
    "/js/myscript/sb-admin-2.min.js": "/js/myscript/sb-admin-2.min.js",
    "/js/myscript/scriptsMain.js": "/js/myscript/scriptsMain.js"
}
